{
  "_class": "group",
  "do_objectID": "ABA5ACDC-7925-4DB4-BF7E-9A4011ADA3CD",
  "exportOptions": {
    "_class": "exportOptions",
    "exportFormats": [
    ],
    "includedLayerIds": [
    ],
    "layerOptions": 0,
    "shouldTrim": false
  },
  "frame": {
    "_class": "rect",
    "constrainProportions": false,
    "height": 40,
    "width": 1246,
    "x": 237,
    "y": 293
  },
  "hasClickThrough": false,
  "isFlippedHorizontal": false,
  "isFlippedVertical": false,
  "isLocked": false,
  "isVisible": true,
  "layerListExpandedType": 0,
  "layers": [
    {
      "class": "group",
      "id": "1F0EC6C2-7AE4-4759-AD37-5189B70DC067"
    },
    {
      "class": "group",
      "id": "4BBF777B-6FBF-4CD1-942C-15A015207292"
    },
    {
      "class": "group",
      "id": "34946EB0-70CD-421B-B016-23F3F2B399DB"
    },
    {
      "class": "group",
      "id": "E019F27E-561D-48ED-9C54-98B28BC6F76B"
    },
    {
      "class": "group",
      "id": "7270132D-F628-4F70-A06E-94DA8B968BA1"
    },
    {
      "class": "group",
      "id": "C445EAF1-017B-4547-9803-C638E4DFE750"
    },
    {
      "class": "group",
      "id": "8C85C6D5-7B8E-4D51-B3E6-E7A6E32C88C1"
    }
  ],
  "name": "row copy",
  "nameIsFixed": true,
  "resizingConstraint": 63,
  "resizingType": 0,
  "rotation": 0,
  "shouldBreakMaskChain": false,
  "style": {
    "_class": "style",
    "endDecorationType": 0,
    "miterLimit": 10,
    "startDecorationType": 0
  }
}