<?xml version="1.0" encoding="UTF-8"?>
<svg width="16px" height="16px" viewBox="0 0 16 16" version="1.1" xmlns="http://www.w3.org/2000/svg" xmlns:xlink="http://www.w3.org/1999/xlink">
    <!-- Generator: Sketch 63.1 (92452) - https://sketch.com -->
    <title>icn/chevron-left</title>
    <desc>Created with Sketch.</desc>
    <g id="icn/chevron-left" stroke="none" stroke-width="1" fill="none" fill-rule="evenodd">
        <path d="M5.29289,7.29289 C4.90237,7.68342 4.90237,8.31658 5.29289,8.70711 L8.29289,11.7071 C8.68342,12.0976 9.31658,12.0976 9.70711,11.7071 C10.0976,11.3166 10.0976,10.6834 9.70711,10.2929 L7.41421,8 L9.70711,5.70711 C10.0976,5.31658 10.0976,4.68342 9.70711,4.29289 C9.31658,3.90237 8.68342,3.90237 8.29289,4.29289 L5.29289,7.29289 Z" id="icon" fill="#000000"></path>
    </g>
</svg>