{
  "_class": "group",
  "do_objectID": "961AE8D6-D9BB-4932-97A4-AE1A74B3A6B5",
  "exportOptions": {
    "_class": "exportOptions",
    "exportFormats": [
    ],
    "includedLayerIds": [
    ],
    "layerOptions": 0,
    "shouldTrim": false
  },
  "frame": {
    "_class": "rect",
    "constrainProportions": false,
    "height": 28,
    "width": 647,
    "x": 607,
    "y": 1502
  },
  "hasClickThrough": false,
  "isFlippedHorizontal": false,
  "isFlippedVertical": false,
  "isLocked": false,
  "isVisible": true,
  "layerListExpandedType": 2,
  "layers": [
    {
      "class": "shapeGroup",
      "id": "198C25A0-8F9F-4631-ACC5-36293D45FD9C"
    },
    {
      "class": "shapeGroup",
      "id": "A4600413-BE0E-4B8B-9F33-0EC702C9B613"
    },
    {
      "class": "shapeGroup",
      "id": "DF381F12-E0C8-415C-ACDD-51A4E6A4A956"
    },
    {
      "class": "shapeGroup",
      "id": "C14BBF23-AD20-4F96-909F-16752E72ACDA"
    },
    {
      "class": "text",
      "id": "3A51A31A-4AAF-42FC-BB48-BC5225E122A5"
    }
  ],
  "name": "new_epic copy 24",
  "nameIsFixed": true,
  "resizingConstraint": 63,
  "resizingType": 0,
  "rotation": 0,
  "shouldBreakMaskChain": false,
  "style": {
    "_class": "style",
    "endDecorationType": 0,
    "miterLimit": 10,
    "startDecorationType": 0
  }
}