{
  "_class": "group",
  "do_objectID": "C342326E-C60E-49B4-96D6-33B6EA968D20",
  "exportOptions": {
    "_class": "exportOptions",
    "exportFormats": [
    ],
    "includedLayerIds": [
    ],
    "layerOptions": 0,
    "shouldTrim": false
  },
  "frame": {
    "_class": "rect",
    "constrainProportions": false,
    "height": 18,
    "width": 229,
    "x": 237,
    "y": 58
  },
  "hasClickThrough": false,
  "isFlippedHorizontal": false,
  "isFlippedVertical": false,
  "isLocked": false,
  "isVisible": true,
  "layerListExpandedType": 0,
  "layers": [
    {
      "class": "shapeGroup",
      "id": "3817B464-3847-43C4-AB1E-D5E00FECB41B"
    },
    {
      "class": "text",
      "id": "B6CDF08D-A370-4C85-B032-195CC3B1108E"
    },
    {
      "class": "text",
      "id": "EC75EFE0-C0B3-4D97-BD18-C2F0CA88FB5B"
    },
    {
      "class": "text",
      "id": "2D82FDD4-6F95-41A2-BAB8-7047BFA634E9"
    },
    {
      "class": "text",
      "id": "B05CF7D2-B871-41D1-A851-CEAA43D0D05E"
    },
    {
      "class": "text",
      "id": "E6B93465-F011-4673-A6FA-F0114C96ED60"
    }
  ],
  "name": "Breadcrumbs",
  "nameIsFixed": true,
  "resizingConstraint": 63,
  "resizingType": 0,
  "rotation": 0,
  "shouldBreakMaskChain": false,
  "style": {
    "_class": "style",
    "endDecorationType": 0,
    "miterLimit": 10,
    "startDecorationType": 0
  }
}