{
  "_class": "shapePath",
  "booleanOperation": -1,
  "do_objectID": "AA8BBC1B-5479-43C3-BBCD-8C5C26160CB3",
  "edited": true,
  "exportOptions": {
    "_class": "exportOptions",
    "exportFormats": [
    ],
    "includedLayerIds": [
    ],
    "layerOptions": 0,
    "shouldTrim": false
  },
  "frame": {
    "_class": "rect",
    "constrainProportions": false,
    "height": 3.999918147759528,
    "width": 16,
    "x": 0,
    "y": 0
  },
  "isFlippedHorizontal": false,
  "isFlippedVertical": false,
  "isLocked": false,
  "isVisible": true,
  "layerListExpandedType": 0,
  "name": "Path",
  "nameIsFixed": false,
  "path": {
    "_class": "path",
    "isClosed": true,
    "pointRadiusBehaviour": 1,
    "points": [
      {
        "_class": "curvePoint",
        "cornerRadius": 0,
        "curveFrom": "{0.74999999991548982, 0.49998976826056829}",
        "curveMode": 1,
        "curveTo": "{0.74999999991548982, 0.49998976826056829}",
        "hasCurveFrom": false,
        "hasCurveTo": false,
        "point": "{0.74999999991548982, 0.49998976826056829}"
      },
      {
        "_class": "curvePoint",
        "cornerRadius": 0,
        "curveFrom": "{0.94403559372884915, 0.49998976826056818}",
        "curveMode": 4,
        "curveTo": "{0.875, 0.49998976826056829}",
        "hasCurveFrom": true,
        "hasCurveTo": false,
        "point": "{0.875, 0.49998976826056829}"
      },
      {
        "_class": "curvePoint",
        "cornerRadius": 0,
        "curveFrom": "{1, 0.99999999999999989}",
        "curveMode": 4,
        "curveTo": "{1, 0.72385197425095082}",
        "hasCurveFrom": false,
        "hasCurveTo": true,
        "point": "{1, 0.99999999999999989}"
      },
      {
        "_class": "curvePoint",
        "cornerRadius": 0,
        "curveFrom": "{-8.4544218887272222e-18, 0.72385197425095105}",
        "curveMode": 4,
        "curveTo": "{0, 1}",
        "hasCurveFrom": true,
        "hasCurveTo": false,
        "point": "{0, 1}"
      },
      {
        "_class": "curvePoint",
        "cornerRadius": 0,
        "curveFrom": "{0.12499999999999997, 0.49998976826056829}",
        "curveMode": 4,
        "curveTo": "{0.055964406271150804, 0.49998976826056829}",
        "hasCurveFrom": false,
        "hasCurveTo": true,
        "point": "{0.12499999999999997, 0.49998976826056829}"
      },
      {
        "_class": "curvePoint",
        "cornerRadius": 0,
        "curveFrom": "{0.25000341068758491, 0.49998976826056829}",
        "curveMode": 1,
        "curveTo": "{0.25000341068758491, 0.49998976826056829}",
        "hasCurveFrom": false,
        "hasCurveTo": false,
        "point": "{0.25000341068758491, 0.49998976826056829}"
      },
      {
        "_class": "curvePoint",
        "cornerRadius": 0,
        "curveFrom": "{0.25000341060307485, 0.11192804897467903}",
        "curveMode": 4,
        "curveTo": "{0.25000341060307485, 0.24999829452398059}",
        "hasCurveFrom": true,
        "hasCurveTo": false,
        "point": "{0.25000341060307485, 0.24999829452398059}"
      },
      {
        "_class": "curvePoint",
        "cornerRadius": 0,
        "curveFrom": "{0.34701856035392903, -2.5364073599145667e-17}",
        "curveMode": 2,
        "curveTo": "{0.27798485024914582, 2.5364073599145667e-17}",
        "hasCurveFrom": true,
        "hasCurveTo": true,
        "point": "{0.31250170530153742, 0}"
      },
      {
        "_class": "curvePoint",
        "cornerRadius": 0,
        "curveFrom": "{0.375, 0.24999829452398054}",
        "curveMode": 4,
        "curveTo": "{0.375, 0.11192804897467892}",
        "hasCurveFrom": false,
        "hasCurveTo": true,
        "point": "{0.375, 0.24999829452398054}"
      },
      {
        "_class": "curvePoint",
        "cornerRadius": 0,
        "curveFrom": "{0.375, 0.49997612612743991}",
        "curveMode": 1,
        "curveTo": "{0.375, 0.49997612612743991}",
        "hasCurveFrom": false,
        "hasCurveTo": false,
        "point": "{0.375, 0.49997612612743991}"
      },
      {
        "_class": "curvePoint",
        "cornerRadius": 0,
        "curveFrom": "{0.62500341068758458, 0.49998976826056829}",
        "curveMode": 1,
        "curveTo": "{0.62500341068758458, 0.49998976826056829}",
        "hasCurveFrom": false,
        "hasCurveTo": false,
        "point": "{0.62500341068758458, 0.49998976826056829}"
      },
      {
        "_class": "curvePoint",
        "cornerRadius": 0,
        "curveFrom": "{0.62500341060307485, 0.11192804897467903}",
        "curveMode": 4,
        "curveTo": "{0.62500341060307485, 0.24999829452398059}",
        "hasCurveFrom": true,
        "hasCurveTo": false,
        "point": "{0.62500341060307485, 0.24999829452398059}"
      },
      {
        "_class": "curvePoint",
        "cornerRadius": 0,
        "curveFrom": "{0.72201856035392897, -2.5364073599145667e-17}",
        "curveMode": 2,
        "curveTo": "{0.65298485024914577, 2.5364073599145667e-17}",
        "hasCurveFrom": true,
        "hasCurveTo": true,
        "point": "{0.68750170530153742, 0}"
      },
      {
        "_class": "curvePoint",
        "cornerRadius": 0,
        "curveFrom": "{0.75, 0.24999829452398054}",
        "curveMode": 4,
        "curveTo": "{0.75, 0.11192804897467892}",
        "hasCurveFrom": false,
        "hasCurveTo": true,
        "point": "{0.75, 0.24999829452398054}"
      },
      {
        "_class": "curvePoint",
        "cornerRadius": 0,
        "curveFrom": "{0.75, 0.49997612612743991}",
        "curveMode": 1,
        "curveTo": "{0.75, 0.49997612612743991}",
        "hasCurveFrom": false,
        "hasCurveTo": false,
        "point": "{0.75, 0.49997612612743991}"
      }
    ]
  },
  "resizingConstraint": 63,
  "resizingType": 0,
  "rotation": 0,
  "shouldBreakMaskChain": false
}