{
  "_class": "shapeGroup",
  "clippingMaskMode": 0,
  "do_objectID": "6CCB2A09-3C03-4A0D-9DD6-B57D79AEB976",
  "exportOptions": {
    "_class": "exportOptions",
    "exportFormats": [
    ],
    "includedLayerIds": [
    ],
    "layerOptions": 0,
    "shouldTrim": false
  },
  "frame": {
    "_class": "rect",
    "constrainProportions": false,
    "height": 32,
    "width": 32,
    "x": 0,
    "y": 0
  },
  "hasClickThrough": false,
  "hasClippingMask": false,
  "isFlippedHorizontal": false,
  "isFlippedVertical": false,
  "isLocked": false,
  "isVisible": true,
  "layerListExpandedType": 1,
  "layers": [
    {
      "class": "rectangle",
      "id": "997DDE94-EB57-446D-8C3C-E3D114C265F3"
    }
  ],
  "name": "themes/indigo/$indigo-200 :: D1D1F0",
  "nameIsFixed": true,
  "resizingConstraint": 63,
  "resizingType": 0,
  "rotation": 0,
  "shouldBreakMaskChain": false,
  "style": {
    "sharedObjectID": "BA7CC8C4-95E9-45C3-8477-41F8705A3B27"
  },
  "windingRule": 1
}