{
  "_class": "shapePath",
  "booleanOperation": -1,
  "do_objectID": "0513EB6F-76F4-49C4-8C73-9E55DE2D59CE",
  "edited": true,
  "exportOptions": {
    "_class": "exportOptions",
    "exportFormats": [
    ],
    "includedLayerIds": [
    ],
    "layerOptions": 0,
    "shouldTrim": false
  },
  "frame": {
    "_class": "rect",
    "constrainProportions": false,
    "height": 5.282749873559609,
    "width": 7.028171627923149,
    "x": -1.665334536937735e-16,
    "y": 1.665334536937735e-16
  },
  "isFlippedHorizontal": false,
  "isFlippedVertical": false,
  "isLocked": false,
  "isVisible": true,
  "layerListExpandedType": 0,
  "name": "Path",
  "nameIsFixed": false,
  "path": {
    "_class": "path",
    "isClosed": true,
    "pointRadiusBehaviour": 0,
    "points": [
      {
        "_class": "curvePoint",
        "cornerRadius": 0,
        "curveFrom": "{0.38239111356312333, 0.59871052461317187}",
        "curveMode": 1,
        "curveTo": "{0.38239111356312333, 0.59871052461317187}",
        "hasCurveFrom": false,
        "hasCurveTo": false,
        "point": "{0.38239111356312333, 0.59871052461317187}"
      },
      {
        "_class": "curvePoint",
        "cornerRadius": 0,
        "curveFrom": "{0.17289958914157558, 0.31980741271329893}",
        "curveMode": 4,
        "curveTo": "{0.18189190384771362, 0.33196633061003011}",
        "hasCurveFrom": true,
        "hasCurveTo": false,
        "point": "{0.18189190384771362, 0.33196633061003011}"
      },
      {
        "_class": "curvePoint",
        "cornerRadius": 0,
        "curveFrom": "{0.13499003550308125, 0.31276161946824749}",
        "curveMode": 2,
        "curveTo": "{0.16063255320655603, 0.31292407095090802}",
        "hasCurveFrom": true,
        "hasCurveTo": true,
        "point": "{0.14781129435481866, 0.31284284520957784}"
      },
      {
        "_class": "curvePoint",
        "cornerRadius": 0,
        "curveFrom": "{0.11359533606144251, 0.33153365551837866}",
        "curveMode": 4,
        "curveTo": "{0.1226742818771526, 0.31948922337921903}",
        "hasCurveFrom": false,
        "hasCurveTo": true,
        "point": "{0.11359533606144251, 0.33153365551837866}"
      },
      {
        "_class": "curvePoint",
        "cornerRadius": 0,
        "curveFrom": "{-0.0047643819311471844, 0.48962426539455595}",
        "curveMode": 4,
        "curveTo": "{0.013914869268623124, 0.46436490865538527}",
        "hasCurveFrom": true,
        "hasCurveTo": false,
        "point": "{0.013914869268623124, 0.46436490865538527}"
      },
      {
        "_class": "curvePoint",
        "cornerRadius": 0,
        "curveFrom": "{0.014240091019986283, 0.55522667790219737}",
        "curveMode": 4,
        "curveTo": "{-0.0046191307211056534, 0.53020513636731281}",
        "hasCurveFrom": false,
        "hasCurveTo": true,
        "point": "{0.014240091019986283, 0.55522667790219737}"
      },
      {
        "_class": "curvePoint",
        "cornerRadius": 0,
        "curveFrom": "{0.35627757713214014, 1.0101698906954975}",
        "curveMode": 4,
        "curveTo": "{0.32482686357183765, 0.96821505288354182}",
        "hasCurveFrom": true,
        "hasCurveTo": false,
        "point": "{0.32482686357183765, 0.96821505288354182}"
      },
      {
        "_class": "curvePoint",
        "cornerRadius": 0,
        "curveFrom": "{0.43914230917600072, 0.96929674061267068}",
        "curveMode": 4,
        "curveTo": "{0.40724621541705164, 1.0106521715483761}",
        "hasCurveFrom": false,
        "hasCurveTo": true,
        "point": "{0.43914230917600072, 0.96929674061267068}"
      },
      {
        "_class": "curvePoint",
        "cornerRadius": 0,
        "curveFrom": "{0.48223419123162403, 0.91196729096884854}",
        "curveMode": 1,
        "curveTo": "{0.48223419123162403, 0.91196729096884854}",
        "hasCurveFrom": false,
        "hasCurveTo": false,
        "point": "{0.48223419123162403, 0.91196729096884854}"
      },
      {
        "_class": "curvePoint",
        "cornerRadius": 0,
        "curveFrom": "{1.0048404873028758, 0.21521611108832442}",
        "curveMode": 4,
        "curveTo": "{0.98714096022298459, 0.24023921117991476}",
        "hasCurveFrom": true,
        "hasCurveTo": false,
        "point": "{0.98714096022298459, 0.24023921117991476}"
      },
      {
        "_class": "curvePoint",
        "cornerRadius": 0,
        "curveFrom": "{0.98567746234185016, 0.15197349248301148}",
        "curveMode": 4,
        "curveTo": "{1.0041891649711789, 0.1759338993053905}",
        "hasCurveFrom": false,
        "hasCurveTo": true,
        "point": "{0.98567746234185016, 0.15197349248301148}"
      },
      {
        "_class": "curvePoint",
        "cornerRadius": 0,
        "curveFrom": "{0.86786241537821485, -0.0056014546881719782}",
        "curveMode": 4,
        "curveTo": "{0.88583438467334918, 0.019142239346004973}",
        "hasCurveFrom": true,
        "hasCurveTo": false,
        "point": "{0.88583438467334918, 0.019142239346004973}"
      },
      {
        "_class": "curvePoint",
        "cornerRadius": 0,
        "curveFrom": "{0.81948914739525747, 0.017195201433573209}",
        "curveMode": 4,
        "curveTo": "{0.83826376630307642, -0.0064700881315117439}",
        "hasCurveFrom": false,
        "hasCurveTo": true,
        "point": "{0.81948914739525747, 0.017195201433573209}"
      }
    ]
  },
  "resizingConstraint": 63,
  "resizingType": 0,
  "rotation": 0,
  "shouldBreakMaskChain": false
}